[
    {
        "time": 2,
        "line": 4
    },
    {
        "time": 2.57,
        "line": 2
    },
    {
        "time": 3.142,
        "line": 4
    },
    {
        "time": 3.713,
        "line": 2
    },
    {
        "time": 4.285,
        "line": 4
    },
    {
        "time": 4.856,
        "line": 2
    },
    {
        "time": 5.427,
        "line": 4
    },
    {
        "time": 5.999,
        "line": 2
    },
    {
        "time": 6.571,
        "line": 5
    },
    {
        "time": 6.855,
        "line": 4
    },
    {
        "time": 7.141,
        "line": 5
    },
    {
        "time": 7.427,
        "line": 4
    },
    {
        "time": 7.713,
        "line": 5
    },
    {
        "time": 7.999,
        "line": 4
    },
    {
        "time": 8.285,
        "line": 3
    },
    {
        "time": 8.857,
        "line": 4
    },
    {
        "time": 9.141,
        "line": 4
    },
    {
        "time": 9.427,
        "line": 4
    },
    {
        "time": 9.713,
        "line": 3
    },
    {
        "time": 9.833,
        "line": 2
    },
    {
        "time": 9.983,
        "line": 1
    },
    {
        "time": 10.285,
        "line": 1
    },
    {
        "time": 10.571,
        "line": 1
    },
    {
        "time": 11.142,
        "line": 5
    },
    {
        "time": 11.427,
        "line": 4
    },
    {
        "time": 11.713,
        "line": 5
    },
    {
        "time": 11.999,
        "line": 4
    },
    {
        "time": 12.284,
        "line": 5
    },
    {
        "time": 12.57,
        "line": 4
    },
    {
        "time": 12.856,
        "line": 3
    },
    {
        "time": 13.428,
        "line": 2
    },
    {
        "time": 13.712,
        "line": 2
    },
    {
        "time": 13.998,
        "line": 1
    },
    {
        "time": 14.284,
        "line": 1
    },
    {
        "time": 14.404,
        "line": 2
    },
    {
        "time": 14.554,
        "line": 3
    },
    {
        "time": 14.856,
        "line": 4
    },
    {
        "time": 15.142,
        "line": 4
    },
    {
        "time": 15.714,
        "line": 5
    },
    {
        "time": 15.998,
        "line": 4
    },
    {
        "time": 16.284,
        "line": 5
    },
    {
        "time": 16.57,
        "line": 4
    },
    {
        "time": 16.856,
        "line": 5
    },
    {
        "time": 17.142,
        "line": 5
    },
    {
        "time": 17.714,
        "line": 5
    },
    {
        "time": 17.999,
        "line": 4
    },
    {
        "time": 18.284,
        "line": 3
    },
    {
        "time": 18.57,
        "line": 4
    },
    {
        "time": 18.856,
        "line": 3
    },
    {
        "time": 19.142,
        "line": 4
    },
    {
        "time": 19.428,
        "line": 4
    },
    {
        "time": 19.999,
        "line": 4
    },
    {
        "time": 20.285,
        "line": 5
    },
    {
        "time": 20.57,
        "line": 4
    },
    {
        "time": 20.856,
        "line": 5
    },
    {
        "time": 21.141,
        "line": 4
    },
    {
        "time": 21.427,
        "line": 5
    },
    {
        "time": 21.713,
        "line": 4
    },
    {
        "time": 22.285,
        "line": 4
    },
    {
        "time": 22.571,
        "line": 3
    },
    {
        "time": 22.855,
        "line": 4
    },
    {
        "time": 23.141,
        "line": 3
    },
    {
        "time": 23.427,
        "line": 4
    },
    {
        "time": 23.713,
        "line": 3
    },
    {
        "time": 23.999,
        "line": 3
    },
    {
        "time": 24.571,
        "line": 3
    },
    {
        "time": 24.857,
        "line": 4
    },
    {
        "time": 25.141,
        "line": 3
    },
    {
        "time": 25.427,
        "line": 4
    },
    {
        "time": 25.713,
        "line": 3
    },
    {
        "time": 25.999,
        "line": 4
    },
    {
        "time": 26.285,
        "line": 4
    },
    {
        "time": 26.856,
        "line": 5
    },
    {
        "time": 27.142,
        "line": 4
    },
    {
        "time": 27.427,
        "line": 5
    },
    {
        "time": 27.713,
        "line": 4
    },
    {
        "time": 27.999,
        "line": 5
    },
    {
        "time": 28.284,
        "line": 4
    },
    {
        "time": 28.57,
        "line": 4
    },
    {
        "time": 29.142,
        "line": 4
    },
    {
        "time": 29.428,
        "line": 3
    },
    {
        "time": 29.712,
        "line": 4
    },
    {
        "time": 29.998,
        "line": 3
    },
    {
        "time": 30.284,
        "line": 4
    },
    {
        "time": 30.57,
        "line": 5
    },
    {
        "time": 30.856,
        "line": 4
    },
    {
        "time": 31.428,
        "line": 4
    },
    {
        "time": 31.714,
        "line": 3
    },
    {
        "time": 31.998,
        "line": 4
    },
    {
        "time": 32.284,
        "line": 3
    },
    {
        "time": 32.57,
        "line": 4
    },
    {
        "time": 32.856,
        "line": 3
    },
    {
        "time": 33.999,
        "line": 2,
        "desc": "long"
    },
    {
        "time": 34.284,
        "line": 3
    },
    {
        "time": 34.57,
        "line": 2
    },
    {
        "time": 34.856,
        "line": 3
    },
    {
        "time": 35.142,
        "line": 2
    },
    {
        "time": 35.428,
        "line": 1
    },
    {
        "time": 35.713,
        "line": 2
    },
    {
        "time": 36.285,
        "line": 2
    },
    {
        "time": 36.57,
        "line": 2
    },
    {
        "time": 36.856,
        "line": 3
    },
    {
        "time": 37.141,
        "line": 2
    },
    {
        "time": 37.261,
        "line": 3
    },
    {
        "time": 37.411,
        "line": 4
    },
    {
        "time": 37.713,
        "line": 4
    },
    {
        "time": 37.999,
        "line": 4
    },
    {
        "time": 38.571,
        "line": 3
    },
    {
        "time": 38.855,
        "line": 4
    },
    {
        "time": 39.141,
        "line": 3
    },
    {
        "time": 39.427,
        "line": 4
    },
    {
        "time": 39.713,
        "line": 3
    },
    {
        "time": 39.999,
        "line": 2
    },
    {
        "time": 40.285,
        "line": 1
    },
    {
        "time": 40.857,
        "line": 1
    },
    {
        "time": 41.141,
        "line": 1
    },
    {
        "time": 41.427,
        "line": 1
    },
    {
        "time": 41.713,
        "line": 2
    },
    {
        "time": 41.833,
        "line": 3
    },
    {
        "time": 41.983,
        "line": 3
    },
    {
        "time": 42.285,
        "line": 3
    },
    {
        "time": 42.571,
        "line": 3
    },
    {
        "time": 43.142,
        "line": 5
    },
    {
        "time": 43.427,
        "line": 4
    },
    {
        "time": 43.713,
        "line": 5
    },
    {
        "time": 43.999,
        "line": 4
    },
    {
        "time": 44.284,
        "line": 5
    },
    {
        "time": 44.57,
        "line": 4
    },
    {
        "time": 44.856,
        "line": 3
    },
    {
        "time": 45.428,
        "line": 3
    },
    {
        "time": 45.712,
        "line": 2
    },
    {
        "time": 45.998,
        "line": 2
    },
    {
        "time": 46.284,
        "line": 2
    },
    {
        "time": 46.404,
        "line": 3
    },
    {
        "time": 46.554,
        "line": 4
    },
    {
        "time": 46.856,
        "line": 4
    },
    {
        "time": 47.142,
        "line": 4
    },
    {
        "time": 47.714,
        "line": 5
    },
    {
        "time": 47.998,
        "line": 4
    },
    {
        "time": 48.284,
        "line": 5
    },
    {
        "time": 48.57,
        "line": 4
    },
    {
        "time": 48.856,
        "line": 5
    },
    {
        "time": 49.142,
        "line": 4
    },
    {
        "time": 49.428,
        "line": 3
    },
    {
        "time": 49.999,
        "line": 1
    },
    {
        "time": 50.284,
        "line": 1
    },
    {
        "time": 50.57,
        "line": 1
    },
    {
        "time": 50.856,
        "line": 2
    },
    {
        "time": 50.976,
        "line": 3
    },
    {
        "time": 51.126,
        "line": 4
    },
    {
        "time": 51.428,
        "line": 4
    },
    {
        "time": 51.713,
        "line": 4
    }
]